%YAML 1.1
%TAG !u! tag:unity3d.com,2011:
--- !u!687078895 &4343727234628468602
SpriteAtlas:
  m_ObjectHideFlags: 0
  m_CorrespondingSourceObject: {fileID: 0}
  m_PrefabInstance: {fileID: 0}
  m_PrefabAsset: {fileID: 0}
  m_Name: UI
  m_EditorData:
    serializedVersion: 2
    textureSettings:
      serializedVersion: 2
      anisoLevel: 1
      compressionQuality: 50
      maxTextureSize: 2048
      textureCompression: 0
      filterMode: 1
      generateMipMaps: 0
      readable: 0
      crunchedCompression: 0
      sRGB: 1
    platformSettings:
    - serializedVersion: 3
      m_BuildTarget: DefaultTexturePlatform
      m_MaxTextureSize: 2048
      m_ResizeAlgorithm: 0
      m_TextureFormat: -1
      m_TextureCompression: 1
      m_CompressionQuality: 50
      m_CrunchedCompression: 0
      m_AllowsAlphaSplitting: 0
      m_Overridden: 0
      m_AndroidETC2FallbackOverride: 0
      m_ForceMaximumCompressionQuality_BC6H_BC7: 0
    packingSettings:
      serializedVersion: 2
      padding: 4
      blockOffset: 1
      allowAlphaSplitting: 0
      enableRotation: 0
      enableTightPacking: 0
    secondaryTextureSettings: {}
    variantMultiplier: 1
    packables:
    - {fileID: 2800000, guid: 17d049820a1076c4fb7c4f96cd4c6a0c, type: 3}
    - {fileID: 2800000, guid: 3c1afda4b5a8f0f439ae4366edf062d6, type: 3}
    - {fileID: 2800000, guid: 3bad5ea313c6b3f4096f92be430f070d, type: 3}
    - {fileID: 2800000, guid: a799c316a3b57134a83afada34289f54, type: 3}
    bindAsDefault: 1
    isAtlasV2: 0
    cachedData: {fileID: 0}
  m_MasterAtlas: {fileID: 0}
  m_PackedSprites:
  - {fileID: 21300000, guid: 17d049820a1076c4fb7c4f96cd4c6a0c, type: 3}
  - {fileID: 21300000, guid: 3bad5ea313c6b3f4096f92be430f070d, type: 3}
  - {fileID: 21300000, guid: 3c1afda4b5a8f0f439ae4366edf062d6, type: 3}
  - {fileID: 21300000, guid: a799c316a3b57134a83afada34289f54, type: 3}
  m_PackedSpriteNamesToIndex:
  - fail-stamp-7
  - timeBar
  - time
  - TryAgain
  m_RenderDataMap: {}
  m_Tag: UI
  m_IsVariant: 0
