%YAML 1.1
%TAG !u! tag:unity3d.com,2011:
--- !u!162 &1
EditorUserSettings:
  m_ObjectHideFlags: 0
  serializedVersion: 4
  m_ConfigSettings:
    RecentlyUsedScenePath-0:
      value: 22424703114646680e0b0227036c6c111b07142f1f2b233e2867083debf42d
      flags: 0
    RecentlyUsedScenePath-1:
      value: 22424703114646680e0b0227036c7e1c011601396c0e27392167083debf42d
      flags: 0
    RecentlyUsedScenePath-2:
      value: 2242470311464672031a093011204b1900123d24280b2722290b083aeee4312aadd435ece93f2c731c0ceb3f052c051aea0b041bfa0e441e1f07e917
      flags: 0
    RecentlyUsedScenePath-3:
      value: 22424703114646680e0b0227036c711f041a1926623d28393930
      flags: 0
    RecentlyUsedScenePath-4:
      value: 22424703114646680e0b0227036c79111f1b270e232b68252320092a
      flags: 0
    RecentlyUsedScenePath-5:
      value: 22424703114646680e0b0227036c79111f1b27042b292837633c133af6f9
      flags: 0
    RecentlyUsedScenePath-6:
      value: 22424703114646680e0b0227036c711f041a192613062131232e5326ece92021
      flags: 0
    RecentlyUsedScenePath-7:
      value: 22424703114646680e0b0227036c711f041a1926130c2933633c133af6f9
      flags: 0
    vcSharedLogLevel:
      value: 0d5e400f0650
      flags: 0
  m_VCAutomaticAdd: 1
  m_VCDebugCom: 0
  m_VCDebugCmd: 0
  m_VCDebugOut: 0
  m_SemanticMergeMode: 2
  m_VCShowFailedCheckout: 1
  m_VCOverwriteFailedCheckoutAssets: 1
  m_VCProjectOverlayIcons: 1
  m_VCHierarchyOverlayIcons: 1
  m_VCOtherOverlayIcons: 1
  m_VCAllowAsyncUpdate: 0
